…
now that we have loaded in all of the data from the participating sites,
we can begin the process of aggregating the individual site-level data

``` r
aggregated_data <- bind_rows(bu_data,cia_data,ru_data,sjsu_data,su_data,ub_data,ucla_data,um_data,unt_data,ur_data,vu_data)
aggregated_data
```

    ## # A tibble: 803 × 17
    ##    site    date  prod_…¹ prod_…² prod_…³ prod_…⁴ prod_…⁵ meal_…⁶ meal_…⁷ recip…⁸
    ##    <chr>   <chr> <chr>   <chr>   <chr>   <chr>   <chr>   <chr>   <chr>   <chr>  
    ##  1 boston… Oct … "190"   pineap… "85.75" "tops,… "68.75" Breakf… 978     "pinea…
    ##  2 boston… Oct … "60"    brocco… "7.25"  "stem … "1"     Lunch   2447    "pinea…
    ##  3 boston… Oct … "30"    cilant… "3"     "stem"  "0.5"   Dinner  1755    ""     
    ##  4 boston… Oct … "220"   pineap… "99.3"  "tops,… "79.7"  Breakf… 1146    "pinea…
    ##  5 boston… Oct … "60"    brocco… "7.7"   "stem … "1.1"   Lunch   2153    "pinea…
    ##  6 boston… Oct … "30"    cilant… "3.4"   "stem"  "0.6"   Dinner  1611    ""     
    ##  7 boston… Oct … "189"   pineap… "85.3"  "tops,… "68.4"  Breakf… 1003    "pinea…
    ##  8 boston… Oct … "42"    brocco… "5.4"   "stem … "0.7"   Lunch   2314    "pinea…
    ##  9 boston… Oct … "60"    cilant… "6.7"   "stem"  "1.1"   Dinner  1614    "pickl…
    ## 10 boston… Oct … ""      pineap… ""      ""      ""      Breakf… 1085    "pinea…
    ## # … with 793 more rows, 7 more variables: prod_vol_in_recipe <chr>,
    ## #   recipe_cost <chr>, recipe_servings <chr>, displaced_recipe <chr>,
    ## #   displaced_recipe_vol <chr>, displaced_recipe_cost <chr>,
    ## #   displaced_recipe_servings <chr>, and abbreviated variable names
    ## #   ¹​prod_vol_purch, ²​prod_type, ³​prod_vol_avail_upcyc,
    ## #   ⁴​prod_type_unavail_upcyc, ⁵​prod_vol_unavail_upcyc, ⁶​meal_period,
    ## #   ⁷​meal_swipes, ⁸​recipe_served
…
to subvert this issue, which will invariably result in a loss of data,
we will need to first remove these identifiers from the corresponding
strings

``` r
sjsu_data %>%
  mutate(prod_vol_purch=str_replace(prod_vol_purch,"lb","")) %>%
  mutate(prod_vol_purch=str_replace(prod_vol_purch,"oz",""))
```

    ## # A tibble: 69 × 17
    ##    site    date  prod_…¹ prod_…² prod_…³ prod_…⁴ prod_…⁵ meal_…⁶ meal_…⁷ recip…⁸
    ##    <chr>   <chr> <chr>   <chr>   <chr>   <chr>   <chr>   <chr>   <chr>   <chr>  
    ##  1 san jo… 23-O… ""      ""      ""      ""      ""      "Break… ""      ""     
    ##  2 san jo… 23-O… ""      ""      ""      ""      ""      "Lunch… ""      ""     
    ##  3 san jo… 23-O… ""      ""      ""      ""      ""      "Dinne… ""      ""     
    ##  4 san jo… 24-O… "50 "   "Yello… "5 lb"  "Stem"  "8 oz " "Break… "750"   ""     
    ##  5 san jo… 24-O… ""      ""      ""      "Slime" "8 oz " "Lunch… "1500"  "Pumpk…
    ##  6 san jo… 24-O… ""      ""      ""      ""      ""      "Dinne… "1500"  ""     
    ##  7 san jo… 25-O… "15 "   ""      ""      "Stem " "4oz"   "Break… ""      ""     
    ##  8 san jo… 25-O… ""      "Figle… "2 lb"  "Slime" "4oz"   "Lunch… "20 (G… "Chila…
    ##  9 san jo… 25-O… ""      ""      ""      ""      ""      "Dinne… ""      ""     
    ## 10 san jo… 26-O… "150 "  "Over … "138 l… "Rinds… "22 lb" "Break… ""      ""     
    ## # … with 59 more rows, 7 more variables: prod_vol_in_recipe <chr>,
    ## #   recipe_cost <chr>, recipe_servings <chr>, displaced_recipe <chr>,
    ## #   displaced_recipe_vol <chr>, displaced_recipe_cost <chr>,
    ## #   displaced_recipe_servings <chr>, and abbreviated variable names
    ## #   ¹​prod_vol_purch, ²​prod_type, ³​prod_vol_avail_upcyc,
    ## #   ⁴​prod_type_unavail_upcyc, ⁵​prod_vol_unavail_upcyc, ⁶​meal_period,
    ## #   ⁷​meal_swipes, ⁸​recipe_served
…
this will require us to first generate a new variable describing the
number of ingredients that were purchased or prepared on a given day,
and separate the `prod_vol_purch`, `prod_type`, `prod_vol_avail_upcyc`,
`prod_type_unavail_upcyc`, and `prod_vol_unavail_upcyc` variables across
the maximum number of ingredients purchased in a single day (by creating
adjoining product-volume variables that are specific to each type of
ingredient purchased or prepared)

``` r
aggregated_data
```

    ## # A tibble: 803 × 18
    ##    site    date  prod_…¹ prod_…² prod_…³ prod_…⁴ prod_…⁵ meal_…⁶ meal_…⁷ recip…⁸
    ##    <chr>   <chr>   <dbl> <chr>     <dbl> <chr>     <dbl> <chr>     <dbl> <chr>  
    ##  1 boston… Oct …     190 pineap…   85.8  "tops,…    68.8 Breakf…     978 "pinea…
    ##  2 boston… Oct …      60 brocco…    7.25 "stem …     1   Lunch      2447 "pinea…
    ##  3 boston… Oct …      30 cilant…    3    "stem"      0.5 Dinner     1755 ""     
    ##  4 boston… Oct …     220 pineap…   99.3  "tops,…    79.7 Breakf…    1146 "pinea…
    ##  5 boston… Oct …      60 brocco…    7.7  "stem …     1.1 Lunch      2153 "pinea…
    ##  6 boston… Oct …      30 cilant…    3.4  "stem"      0.6 Dinner     1611 ""     
    ##  7 boston… Oct …     189 pineap…   85.3  "tops,…    68.4 Breakf…    1003 "pinea…
    ##  8 boston… Oct …      42 brocco…    5.4  "stem …     0.7 Lunch      2314 "pinea…
    ##  9 boston… Oct …      60 cilant…    6.7  "stem"      1.1 Dinner     1614 "pickl…
    ## 10 boston… Oct …      NA pineap…   NA    ""         NA   Breakf…    1085 "pinea…
    ## # … with 793 more rows, 8 more variables: prod_vol_in_recipe <dbl>,
    ## #   recipe_cost <dbl>, recipe_servings <dbl>, displaced_recipe <chr>,
    ## #   displaced_recipe_vol <dbl>, displaced_recipe_cost <dbl>,
    ## #   displaced_recipe_servings <dbl>, `case_when(...)` <lgl>, and abbreviated
    ## #   variable names ¹​prod_vol_purch, ²​prod_type, ³​prod_vol_avail_upcyc,
    ## #   ⁴​prod_type_unavail_upcyc, ⁵​prod_vol_unavail_upcyc, ⁶​meal_period,
    ## #   ⁷​meal_swipes, ⁸​recipe_served
…
this will require us to create a new variable-organization system that
maps the previously identified `prod_vol_purch`, `prod_type`,
`prod_vol_avail_upcyc`, `prod_type_unavail_upcyc`, and
`prod_vol_unavail_upcyc` variables onto each day for all ingredients
used. this should help with some downstream mutations, as it will allow
us to retain a record of all the originally input volume-of-product
information while also accommodating our time-interval data structure

said differently, we will construct

``` r
aggregated_data
```

    ## # A tibble: 803 × 18
    ##    site    date  prod_…¹ prod_…² prod_…³ prod_…⁴ prod_…⁵ meal_…⁶ meal_…⁷ recip…⁸
    ##    <chr>   <chr>   <dbl> <chr>     <dbl> <chr>     <dbl> <chr>     <dbl> <chr>  
    ##  1 boston… Oct …     190 pineap…   85.8  "tops,…    68.8 Breakf…     978 "pinea…
    ##  2 boston… Oct …      60 brocco…    7.25 "stem …     1   Lunch      2447 "pinea…
    ##  3 boston… Oct …      30 cilant…    3    "stem"      0.5 Dinner     1755 ""     
    ##  4 boston… Oct …     220 pineap…   99.3  "tops,…    79.7 Breakf…    1146 "pinea…
    ##  5 boston… Oct …      60 brocco…    7.7  "stem …     1.1 Lunch      2153 "pinea…
    ##  6 boston… Oct …      30 cilant…    3.4  "stem"      0.6 Dinner     1611 ""     
    ##  7 boston… Oct …     189 pineap…   85.3  "tops,…    68.4 Breakf…    1003 "pinea…
    ##  8 boston… Oct …      42 brocco…    5.4  "stem …     0.7 Lunch      2314 "pinea…
    ##  9 boston… Oct …      60 cilant…    6.7  "stem"      1.1 Dinner     1614 "pickl…
    ## 10 boston… Oct …      NA pineap…   NA    ""         NA   Breakf…    1085 "pinea…
    ## # … with 793 more rows, 8 more variables: prod_vol_in_recipe <dbl>,
    ## #   recipe_cost <dbl>, recipe_servings <dbl>, displaced_recipe <chr>,
    ## #   displaced_recipe_vol <dbl>, displaced_recipe_cost <dbl>,
    ## #   displaced_recipe_servings <dbl>, `case_when(...)` <lgl>, and abbreviated
    ## #   variable names ¹​prod_vol_purch, ²​prod_type, ³​prod_vol_avail_upcyc,
    ## #   ⁴​prod_type_unavail_upcyc, ⁵​prod_vol_unavail_upcyc, ⁶​meal_period,
    ## #   ⁷​meal_swipes, ⁸​recipe_served
…
